<?xml version="1.0" encoding="utf-8"?>
<!-- Generator: Adobe Illustrator 22.1.0, SVG Export Plug-In . SVG Version: 6.00 Build 0)  -->
<svg version="1.1" id="Capa_1" xmlns="http://www.w3.org/2000/svg" xmlns:xlink="http://www.w3.org/1999/xlink" x="0px" y="0px"
	 viewBox="0 0 353 40" enable-background="new 0 0 353 40" xml:space="preserve">
<g>
	<g>
		<path fill="#EEEEEE" d="M4.3,7.8l343.5-4.3L282.1,37l42.8-29.2H4.3z M39.8,11.5h-3.1l-3.2,0c-3.2,0-14-0.3-15.3-0.3
			c-0.7,0-1.5,0.1-2.2,0.2c-0.7,0.1-1.4,0.3-2.1,0.6c-0.7,0.3-1.3,0.7-1.8,1.1c-0.5,0.4-0.9,0.9-1.3,1.4c-0.3,0.5-0.6,1-0.8,1.5
			c-0.1,0.4-0.2,0.8-0.2,1.2c0,0.4,0.1,0.8,0.2,1.1c0.1,0.4,0.4,0.8,0.7,1.2c0.2,0.2,0.4,0.6,0.8,1l1.7,2.1c0.2,0.2,0.3,0.4,0.3,0.5
			c0.1,0.2,0.1,0.3,0.1,0.4c0,0.1,0,0.3-0.1,0.4c-0.1,0.4-0.5,0.7-1,0.9c-0.5,0.2-1.1,0.3-1.9,0.3c-0.6,0-1.2-0.1-1.9-0.2
			c-0.7-0.2-1.4-0.5-2.3-0.9c-0.2,1.1-0.5,2.5-1,4.3c2,0.4,3.6,0.6,5,0.6c0.9,0,1.8-0.1,2.6-0.3c0.9-0.2,1.7-0.5,2.5-0.9
			c0.8-0.4,1.5-1,2.1-1.7c0.6-0.7,1-1.4,1.2-2.2c0.1-0.3,0.2-0.6,0.2-0.8c0-0.3,0-0.5,0-0.8c0-0.3-0.1-0.5-0.3-0.8
			c-0.1-0.3-0.3-0.6-0.5-0.9c-0.2-0.3-0.4-0.6-0.6-0.8l-0.7-0.7c-0.5-0.5-0.8-0.9-1.1-1.2c-0.2-0.3-0.4-0.5-0.5-0.7
			c-0.1-0.2-0.2-0.4-0.2-0.6c0-0.2,0-0.3,0.1-0.5c0.1-0.4,0.4-0.7,0.9-0.9c0.5-0.2,1.1-0.4,1.8-0.4c0.5,0,11,0.2,11,0.2
			c-1.7,5-3.4,9.5-5.1,13.7c1.6,0,2.6,0,2.9,0c0.4,0,1.3,0,2.7,0c0.3-1.1,0.8-2.5,1.4-4.2c0.6-1.7,1.2-3.5,1.9-5.3
			c0.5-1.3,1-2.7,1.6-4.2h0.9c1.2,0,2.7,0.1,4.5,0.2c0.1-0.2,0.2-0.6,0.3-1c0.2-0.4,0.4-1,0.6-1.7l0.5-1.3L39.8,11.5z M35.5,28.9
			c0.4,0,1.3,0,2.9,0c1.4-1.8,2.6-3.4,3.8-4.9h6.4c0.1,1.9,0.1,3.5,0.1,4.9c1.4,0,2.4,0,3.2,0c0.3,0,1.2,0,2.7,0l-0.1-1.9l-0.5-10.2
			l-0.2-5.3c-1,0-2.1,0-3.3,0c-0.7,0-1.8,0-3.3,0c-0.6,0.8-1.1,1.4-1.4,1.8l-1.1,1.4L34,27.1L32.4,29C33.8,28.9,34.8,28.9,35.5,28.9
			z M46.5,18.4c0.6-0.8,1.4-1.8,2.4-3.1c0,0.3,0,2,0,5h-4L46.5,18.4z M58.6,29c0.4,0,1.3,0,2.8,0c0.8-2.4,1.6-4.9,2.5-7.4
			c0.9-2.5,1.6-4.6,2.3-6.4c0.4,0,0.8,0,1.1,0c0.3,0,0.6,0,0.9,0c0.9,0,1.5,0.1,1.9,0.2c0.4,0.1,0.6,0.3,0.7,0.6
			c0.1,0.3,0.1,0.6,0,1c-0.1,0.4-0.4,0.9-0.8,1.2c-0.4,0.4-0.9,0.7-1.4,0.9c-0.6,0.2-1.2,0.3-1.8,0.3c-0.4,0-0.9,0-1.3-0.1l0.2,3.6
			c0.1,1.1,0.1,1.9,0.1,2.5c0,0.3,0,0.7,0,1.2c0,1.2,0,2,0,2.5c1.4,0,2.4,0,3,0c0.5,0,1.4,0,2.8,0c0-0.5-0.1-0.8-0.1-1l-0.5-3.7
			c-0.1-0.5-0.1-0.9-0.2-1.4l-0.2-1.6c1-0.3,1.7-0.7,2.3-1c0.6-0.3,1.1-0.7,1.5-1.1c0.4-0.4,0.8-0.9,1.1-1.4c0.3-0.5,0.5-1,0.7-1.6
			c0.2-0.5,0.2-1,0.3-1.4c0-0.4-0.1-0.8-0.2-1.2c-0.1-0.3-0.3-0.6-0.6-0.9c-0.3-0.3-0.6-0.5-1.1-0.7c-0.5-0.2-1-0.3-1.6-0.4
			c-0.8-0.1-1.8-0.1-2.9-0.1c-0.9,0-1.9,0-2.9,0.1c-1,0-1.8,0.1-2.5,0.1c-0.7,0-1.5,0-2.6,0c-0.3,1-0.8,2.4-1.4,4.2
			c-0.6,1.8-1.2,3.4-1.7,5c-0.6,1.6-1.1,3-1.6,4.2c-0.5,1.2-1,2.6-1.7,4C57.2,29,58.1,29,58.6,29z M77.1,28.9l2.8,0l2.8-7.9l3.6-9.5
			c-1.5,0-2.4,0-2.8,0c-0.5,0-1.5,0-2.9,0l-0.3,1.1c-0.3,0.9-0.8,2.5-1.7,4.8c-1.2,3.2-2.1,5.8-2.8,7.6c-0.4,1-0.9,2.4-1.6,4
			C75.8,28.9,76.7,28.9,77.1,28.9z M86,29c1.6,0,2.8,0,3.4,0l3.1,0l-2.8-7.8l-0.5-1.5l1.4-1.4l7.5-6.8c-1.9,0-2.9,0-3,0
			c-0.6,0-1.6,0-3.2,0l-1.1,1.1l-3.3,3.2l-4.1,3.9C84.7,23.8,85.6,26.9,86,29z M133,19.7c0.9-0.9,1.5-1.9,1.9-3.1
			c0.2-0.5,0.3-1.1,0.3-1.6c0-0.5,0-1-0.2-1.4c-0.1-0.4-0.4-0.8-0.7-1.1c-0.3-0.3-0.7-0.5-1.2-0.7c-0.5-0.1-1.3-0.2-2.4-0.2
			c-0.8,0-1.7,0-2.9,0.1c-1.1,0-2,0.1-2.7,0.1c-0.4,0-0.8,0-1.4,0c0,0,0,0,0,0c-4.1-0.1-8.7-0.2-9.6-0.2c-0.7,0-1.5,0.1-2.2,0.2
			c-0.7,0.1-1.4,0.3-2.1,0.6c-0.7,0.3-1.3,0.7-1.8,1.1c-0.5,0.4-0.9,0.9-1.3,1.4c-0.3,0.5-0.6,1-0.8,1.5c-0.1,0.4-0.2,0.8-0.2,1.2
			c0,0.4,0.1,0.8,0.2,1.1c0.1,0.4,0.4,0.8,0.7,1.2c0.2,0.2,0.4,0.6,0.8,1l1.7,2.1c0.2,0.2,0.3,0.4,0.3,0.5c0.1,0.2,0.1,0.3,0.1,0.4
			c0,0.1,0,0.3-0.1,0.4c-0.1,0.4-0.5,0.7-1,0.9c-0.5,0.2-1.1,0.3-1.9,0.3c-0.6,0-1.2-0.1-1.9-0.2c-0.7-0.2-1.4-0.5-2.3-0.9
			c-0.2,1.1-0.5,2.5-1,4.3c2,0.4,3.6,0.6,5,0.6c0.9,0,1.8-0.1,2.6-0.3c0.9-0.2,1.7-0.5,2.5-0.9c0.8-0.4,1.5-1,2.1-1.7
			c0.6-0.7,1-1.4,1.2-2.2c0.1-0.3,0.2-0.6,0.2-0.8c0-0.3,0-0.5,0-0.8c0-0.3-0.1-0.5-0.3-0.8c-0.1-0.3-0.3-0.6-0.5-0.9
			c-0.2-0.3-0.4-0.6-0.6-0.8l-0.7-0.7c-0.5-0.5-0.8-0.9-1.1-1.2c-0.2-0.3-0.4-0.5-0.5-0.7c-0.1-0.2-0.2-0.4-0.2-0.6
			c0-0.2,0-0.3,0.1-0.5c0.1-0.4,0.4-0.7,0.9-0.9c0.5-0.2,1.1-0.4,1.8-0.4c0.3,0,9.8-0.1,12.9-0.1c0.3,0,0.6,0,0.9,0
			c0.3,0,0.6,0,0.8,0.1c0.2,0,0.4,0.1,0.6,0.3c0.2,0.1,0.2,0.3,0.3,0.5c0,0.2,0,0.5-0.1,0.8c-0.2,0.6-0.6,1.1-1.1,1.5
			c-0.6,0.4-2.9,0.8-3.8,0.6c0.2-0.6,0.5-1.2,0.7-1.9c-1.6-0.1-3.2,0.1-4.8,0.1l-0.8,2.1l-2.5,6.2l-1.3,3.2c1.4,0,2.3,0,2.6,0l2.5,0
			l0.6-1.6c0.2-0.6,0.8-2.2,1.8-4.8c1,0.1,2.7,0.1,3,0.1c1.2,0,2.4-0.2,3.5-0.7C131.1,21.3,132.1,20.6,133,19.7z M150.2,27l0.1,1.8
			c-1.4,0-2.3,0-2.6,0c-0.7,0-1.7,0-3.1,0c0.1-1.4,0.1-3,0.1-4.8h-6.3c-1.2,1.5-2.5,3.1-3.9,4.8c-1.5,0-2.5,0-2.8,0
			c-0.6,0-1.7,0-3.1,0l1.7-1.8l10.6-12.2l1.2-1.4c0.3-0.4,0.8-1,1.4-1.7c1.5,0,2.5,0,3.2,0c1.2,0,2.3,0,3.3,0l0,5.2L150.2,27z
			 M145.1,15.5c-1,1.2-1.8,2.2-2.4,3l-1.5,1.8h3.9C145,17.4,145.1,15.8,145.1,15.5z M159.7,18c0.8-0.9,1.7-1.5,2.8-2
			s2.1-0.7,3.3-0.7c0.5,0,1.1,0,1.6,0.1c0.6,0.1,1.3,0.2,2.2,0.5l0.4-1.4c0.2-0.5,0.3-1.1,0.4-1.5l0.3-1c-1.7-0.3-3.2-0.5-4.4-0.5
			c-1.3,0-2.7,0.2-4.1,0.5c-1.4,0.3-2.7,0.9-4.1,1.7c-1.3,0.8-2.5,1.8-3.5,3c-1,1.2-1.7,2.6-2.2,4.1c-0.4,1.3-0.6,2.5-0.6,3.5
			c0.1,1,0.4,1.9,1.1,2.7s1.6,1.3,2.6,1.7c1,0.3,2.2,0.5,3.6,0.5c1.4,0,3-0.1,4.9-0.4c0.2-0.5,0.5-1.2,1-2c0.4-0.9,0.8-1.6,1.1-2
			c-1.1,0.3-2.1,0.5-2.8,0.6c-0.7,0.1-1.4,0.1-2,0.1c-1.1,0-1.9-0.2-2.5-0.6s-1-0.9-1.2-1.6c-0.2-0.7-0.1-1.5,0.2-2.4
			C158.3,19.8,158.9,18.8,159.7,18z M174.5,11.8l-0.4,1.1c-0.3,0.8-0.9,2.4-1.8,4.8c-0.9,2.4-1.7,4.3-2.3,5.8
			c-0.6,1.4-1.4,3.2-2.3,5.4l1.8,0l5.5,0c2.4,0,4.6,0,6.7,0c0.5-1.3,1-2.6,1.6-3.8c-0.9,0.1-1.6,0.1-2,0.1l-2.6,0.1
			c-1.3,0-2.2,0-2.6,0h-1.4l1.2-3c1.4-0.1,2.7-0.1,3.9-0.1c0.8,0,1.9,0,3.3,0c0.6-1.5,1.1-2.7,1.5-3.8c-2,0.1-3.3,0.1-3.7,0.1
			c-1.3,0-2.4,0-3.4,0l1.1-2.9c0.9,0,1.6-0.1,2-0.1c0.4,0,1.2,0,2.4,0c1.1,0,2.4,0,4,0.1c0.1-0.3,0.2-0.6,0.3-0.9l0.5-1.4
			c0.2-0.6,0.4-1,0.4-1.1l0.2-0.4c-2,0-4.2,0-6.8,0C178.8,11.8,176.5,11.8,174.5,11.8z M205.2,14.6c0.2-0.4,0.4-1,0.6-1.6l0.5-1.2
			l-1.6,0h-3l-3.1,0c-3.1,0-5.9,0-8.2,0c-0.3,0.9-0.6,1.7-0.9,2.4l-0.5,1.4l5.4-0.1c-1.8,4.9-3.5,9.3-5.3,13.4c1.6,0,2.5,0,2.9,0
			c0.4,0,1.3,0,2.6,0c0.4-1,0.9-2.4,1.5-4.1c0.6-1.7,1.3-3.4,2-5.2c0.5-1.2,1.1-2.6,1.7-4.1h0.9c1.2,0,2.6,0,4.4,0.1
			C204.9,15.4,205,15.1,205.2,14.6z M216.7,24.2c-0.1-0.5-0.1-0.9-0.1-1.3l-0.1-1.6c0.9-0.3,1.7-0.6,2.3-1s1.1-0.7,1.5-1.1
			c0.5-0.4,0.8-0.9,1.1-1.4s0.6-1,0.8-1.6c0.2-0.5,0.3-1,0.3-1.4c0-0.4,0-0.8-0.1-1.1c-0.1-0.3-0.3-0.6-0.6-0.9
			c-0.3-0.3-0.6-0.5-1.1-0.7c-0.4-0.2-1-0.3-1.6-0.4c-0.8-0.1-1.7-0.1-2.8-0.1c-0.9,0-1.8,0-2.8,0.1c-1,0-1.8,0.1-2.5,0.1
			c-0.6,0-1.5,0-2.5,0c-0.3,1-0.8,2.4-1.5,4.1c-0.6,1.7-1.2,3.3-1.8,4.9c-0.6,1.5-1.1,2.9-1.6,4.1c-0.5,1.2-1.1,2.5-1.7,4
			c1.3,0,2.1,0,2.6,0c0.4,0,1.3,0,2.7,0c0.8-2.4,1.7-4.8,2.6-7.2c0.9-2.5,1.7-4.5,2.4-6.2c0.4,0,0.8,0,1.1,0c0.3,0,0.6,0,0.9,0
			c0.9,0,1.5,0.1,1.8,0.2c0.4,0.1,0.6,0.3,0.7,0.6c0.1,0.3,0.1,0.6,0,0.9c-0.1,0.4-0.4,0.8-0.8,1.2c-0.4,0.4-0.9,0.7-1.4,0.8
			c-0.6,0.2-1.1,0.3-1.7,0.3c-0.4,0-0.9,0-1.3-0.1l0.1,3.5c0,1.1,0,1.9,0,2.5c0,0.3,0,0.6,0,1.1c-0.1,1.2-0.1,2-0.1,2.4
			c1.4,0,2.4,0,3,0c0.5,0,1.4,0,2.8,0c0-0.5-0.1-0.8-0.1-0.9L216.7,24.2z M239.7,27l0.1,1.8c-1.4,0-2.3,0-2.6,0c-0.7,0-1.7,0-3.1,0
			c0.1-1.4,0.1-3,0.1-4.8h-6.3c-1.2,1.5-2.5,3.1-3.9,4.8c-1.5,0-2.5,0-2.8,0c-0.6,0-1.7,0-3.1,0l1.7-1.8l10.6-12.2l1.2-1.4
			c0.3-0.4,0.8-1,1.4-1.7c1.5,0,2.5,0,3.2,0c1.2,0,2.3,0,3.3,0l0,5.2L239.7,27z M234.6,15.5c-1,1.2-1.8,2.2-2.4,3l-1.5,1.8h3.9
			C234.6,17.4,234.6,15.8,234.6,15.5z M262.8,11.8c-1.4,0-2.3,0-2.7,0c-0.7,0-1.7,0-2.9,0c-0.4,0.5-0.7,0.9-0.8,1.1
			c-0.2,0.2-0.3,0.4-0.5,0.6l-7.6,9.5l-1.1,1.4c0.1-1,0.1-1.8,0.2-2.4l0.2-5.9c0-1.3,0.1-2.2,0.1-2.7c0-0.4,0.1-0.9,0.1-1.7
			c-1.2,0-2,0-2.6,0c-0.9,0-1.9,0-3,0l0.1,6.7l0,8.8l-0.1,1.5c1.6,0,2.6,0,3.2,0c0.6,0,1.6,0,3,0c0.9-1.1,1.7-2.1,2.4-3l7.2-8.5
			C259.8,15.2,261.4,13.4,262.8,11.8z M269.4,22.1c0.8,0,1.9,0,3.3,0c0.6-1.5,1.1-2.7,1.5-3.8c-2,0.1-3.3,0.1-3.7,0.1
			c-1.3,0-2.4,0-3.4,0l1.1-2.9c0.9,0,1.6-0.1,2-0.1c0.4,0,1.2,0,2.4,0c1.1,0,2.4,0,4,0.1c0.1-0.3,0.2-0.6,0.3-0.9l0.5-1.4
			c0.2-0.6,0.4-1,0.4-1.1l0.2-0.4c-2,0-4.2,0-6.8,0c-2.8,0-5.2,0-7.1,0l-0.4,1.1c-0.3,0.8-0.9,2.4-1.8,4.8c-0.9,2.4-1.7,4.3-2.3,5.8
			c-0.6,1.4-1.4,3.2-2.3,5.4l1.8,0l5.5,0c2.4,0,4.6,0,6.7,0c0.5-1.3,1-2.6,1.6-3.8c-0.9,0.1-1.6,0.1-2,0.1l-2.6,0.1
			c-1.3,0-2.2,0-2.6,0h-1.4l1.2-3C267,22.1,268.2,22.1,269.4,22.1z M284.6,25.1c-0.4,0-1.4,0-2.8,0l0.6-1.7l2.8-7.1l1.9-4.5
			c-1.1,0-2,0-2.6,0c-0.9,0-1.9,0-3,0c-0.5,1.4-1.2,3.3-2,5.5c-0.9,2.2-1.8,4.5-2.7,6.7c-0.5,1.2-1.2,2.8-2.1,4.8c2,0,4.4,0,7,0
			c2,0,4.1,0,6.2,0l1.6-3.8C288.4,25.1,286.8,25.1,284.6,25.1z"/>
	</g>
</g>
</svg>
